%YAML 1.1
%TAG !u! tag:unity3d.com,2011:
--- !u!1045 &1
EditorBuildSettings:
  m_ObjectHideFlags: 0
  serializedVersion: 2
  m_Scenes:
  - enabled: 0
    path: Assets/Scenes/Test.unity
    guid: 59670115237eb0c469cc521da78d4180
  - enabled: 1
    path: Assets/Scenes/Editor.unity
    guid: fc8b6fc65748c9247bdcdac0a5c787d8
  - enabled: 1
    path: Assets/Scenes/Game.unity
    guid: 6cfc91d679d1d4a43b364e051a8231f0
  m_configObjects: {}
