%YAML 1.1
%TAG !u! tag:unity3d.com,2011:
--- !u!114 &11400000
MonoBehaviour:
  m_ObjectHideFlags: 0
  m_CorrespondingSourceObject: {fileID: 0}
  m_PrefabInstance: {fileID: 0}
  m_PrefabAsset: {fileID: 0}
  m_GameObject: {fileID: 0}
  m_Enabled: 1
  m_EditorHideFlags: 0
  m_Script: {fileID: 11500000, guid: 9954545895aa4d699a93c72f7cc28e73, type: 3}
  m_Name: Evaluation Database
  m_EditorClassIdentifier: 
  wonderfulRange: 0.1
  greatRange: 0.18
  goodRange: 0.25
  missRange: 0.4
